ST7735/testbench.vcd
$date
	Sun Mar  5 05:16:20 2023
$end
$version
	Icarus Verilog
$end
$timescale
	1s
$end
$scope module tb $end
$var wire 1 ! led_out $end
$var wire 1 " SCLK $end
$var wire 1 # SCE $end
$var wire 1 $ RST $end
$var wire 1 % MOSI $end
$var wire 1 & D_C $end
$var reg 1 ' clk_24mhz $end
$scope module dut $end
$var wire 1 ' clk_24mhz $end
$var wire 1 ! led_out $end
$var wire 1 ( screen_controller_reg_valid $end
$var wire 1 " SCLK $end
$var wire 1 # SCE $end
$var wire 1 % MOSI $end
$var wire 1 & D_C $end
$var reg 1 $ RST $end
$var reg 24 ) counter_redraw [23:0] $end
$var reg 24 * counter_start [23:0] $end
$var reg 1 + draw_frame $end
$var reg 1 , first_pixel $end
$var reg 3 - led [2:0] $end
$var reg 1 . screen_controller_address $end
$var reg 1 / screen_controller_enable $end
$var reg 7 0 screen_controller_pixel_addr_x [6:0] $end
$var reg 7 1 screen_controller_pixel_addr_y [6:0] $end
$var reg 16 2 screen_controller_pixel_wr_data [15:0] $end
$var reg 1 3 screen_controller_pixel_wr_en $end
$var reg 4 4 screen_controller_reg_address [3:0] $end
$var reg 8 5 screen_controller_reg_data [7:0] $end
$var reg 1 6 screen_controller_reg_wr_en $end
$var reg 7 7 square_start_x [6:0] $end
$var reg 7 8 square_start_y [6:0] $end
$var reg 1 9 square_vector_x $end
$var reg 1 : square_vector_y $end
$scope module screen_controller_inst $end
$var wire 16 ; bram_data_out [15:0] $end
$var wire 1 ' clk_main $end
$var wire 1 / enable $end
$var wire 7 < pixel_addr_x [6:0] $end
$var wire 7 = pixel_addr_y [6:0] $end
$var wire 16 > pixel_wr_data [15:0] $end
$var wire 1 3 pixel_wr_en $end
$var wire 4 ? reg_address [3:0] $end
$var wire 8 @ reg_data [7:0] $end
$var wire 1 6 reg_wr_en $end
$var wire 1 A spi_miso $end
$var wire 1 # spi_ss $end
$var wire 1 % spi_mosi $end
$var wire 1 & spi_d_c $end
$var wire 1 " spi_clk $end
$var wire 1 B interface_is_init $end
$var wire 1 C interface_buffer_free $end
$var wire 1 D bram_valid_out $end
$var reg 16 E bram_data_in [15:0] $end
$var reg 7 F bram_rd_addr_x [6:0] $end
$var reg 7 G bram_rd_addr_y [6:0] $end
$var reg 1 H bram_rd_en $end
$var reg 7 I bram_wr_addr_x [6:0] $end
$var reg 7 J bram_wr_addr_y [6:0] $end
$var reg 1 K bram_wr_en $end
$var reg 16 L interface_pixel_write [15:0] $end
$var reg 1 M interface_wr_en $end
$var reg 1 ( reg_valid $end
$var reg 2 N waiting_memory_data [1:0] $end
$scope module ST7735_interface_inst $end
$var wire 1 ' clk_main $end
$var wire 1 / enable $end
$var wire 16 O pixel_write [15:0] $end
$var wire 1 M wr_en $end
$var reg 1 P advertise_pixel_consume $end
$var reg 1 Q advertise_pixel_consume_buffer $end
$var reg 1 C buffer_free $end
$var reg 16 R buffer_pixel_write [15:0] $end
$var reg 25 S clk_counter_tx [24:0] $end
$var reg 8 T counter_current_param [7:0] $end
$var reg 25 U counter_send_interval [24:0] $end
$var reg 5 V current_byte_pos [4:0] $end
$var reg 20 W current_pixel [19:0] $end
$var reg 1 B is_init $end
$var reg 16 X pixel_display [15:0] $end
$var reg 1 Y reg_valid $end
$var reg 1 " spi_clk $end
$var reg 1 & spi_d_c $end
$var reg 1 % spi_mosi $end
$var reg 1 # spi_ss $end
$var reg 6 Z state [5:0] $end
$upscope $end
$scope module screen_controller_memory_inst $end
$var wire 1 ' clk $end
$var wire 16 [ data_in [15:0] $end
$var wire 16 \ data_out [15:0] $end
$var wire 7 ] rd_addr_x [6:0] $end
$var wire 7 ^ rd_addr_y [6:0] $end
$var wire 1 H rd_en $end
$var wire 7 _ wr_addr_x [6:0] $end
$var wire 7 ` wr_addr_y [6:0] $end
$var wire 1 K wr_en $end
$var reg 1 D valid_out $end
$upscope $end
$upscope $end
$upscope $end
$upscope $end
$enddefinitions $end
#0
$dumpvars
b0 `
b0 _
b0 ^
b0 ]
b1111111111111111 \
bx [
b1 Z
0Y
b0 X
b0 W
b111 V
b0 U
b0 T
b0 S
b0 R
0Q
0P
bx O
b0 N
xM
bx L
xK
b0 J
b0 I
xH
b0 G
b0 F
bx E
xD
1C
0B
zA
bx @
bx ?
b0 >
b0 =
b0 <
b1111111111111111 ;
0:
09
b110000 8
b1000000 7
06
bx 5
bx 4
03
b0 2
b0 1
b0 0
0/
0.
b0 -
1,
1+
b0 *
b0 )
0(
x'
1&
0%
1$
1#
1"
1!
$end
#5
0'
#10
0#
b110 V
0&
0"
0M
0K
0H
b1 -
b1 *
1'
#15
0'
#20
b10 *
1"
1'
#25
0'
#30
b101 V
0#
0"
0$
b11 *
1'
#35
0'
#40
b100 *
1"
1'
#45
0'
#50
b100 V
0#
0"
1/
1'
#55
0'
#60
1"
b0 S
1'
#65
0'
#70
b11 V
0#
0"
b0 S
1'
#75
0'
#80
1"
b0 S
1'
#85
0'
#90
b10 V
0#
0"
b0 S
1'
#95
0'
#100
1"
b0 S
1'
#105
0'
#110
b1 V
0#
0"
b0 S
1'
#115
0'
#120
1"
b0 S
1'
#125
0'
#130
b0 V
0#
0"
b0 S
1'
#135
0'
#140
1"
b0 S
1'
#145
0'
#150
b10 Z
1%
b111 V
0#
0"
b0 S
1'
#155
0'
#160
1"
b0 S
1'
#165
0'
#170
b1 U
b110 V
1#
0"
b0 S
1'
#175
0'
#180
1"
b0 S
1'
#185
0'
#190
b10 U
b101 V
0"
b0 S
1'
#195
0'
#200
1"
b0 S
1'
#205
0'
#210
b11 U
b100 V
0"
b0 S
1'
#215
0'
#220
1"
b0 S
1'
#225
0'
#230
b100 U
b11 V
0"
b0 S
1'
#235
0'
#240
1"
b0 S
1'
#245
0'
#250
b101 U
b10 V
0"
b0 S
1'
#255
0'
#260
1"
b0 S
1'
#265
0'
#270
b110 U
b1 V
0"
b0 S
1'
#275
0'
#280
1"
b0 S
1'
#285
0'
#290
b111 U
b0 V
0"
b0 S
1'
#295
0'
#300
1"
b0 S
1'
#305
0'
#310
b1000 U
b11111 V
0"
b0 S
1'
#315
0'
#320
1"
b0 S
1'
#325
0'
#330
b1001 U
b11110 V
0"
b0 S
1'
#335
0'
#340
1"
b0 S
1'
#345
0'
#350
b1010 U
b11101 V
0"
b0 S
1'
#355
0'
#360
1"
b0 S
1'
#365
0'
#370
b1011 U
b11100 V
0"
b0 S
1'
#375
0'
#380
1"
b0 S
1'
#385
0'
#390
b1100 U
b11011 V
0"
b0 S
1'
#395
0'
#400
1"
b0 S
1'
#405
0'
#410
b1101 U
b11010 V
0"
b0 S
1'
#415
0'
#420
1"
b0 S
1'
#425
0'
#430
b1110 U
b11001 V
0"
b0 S
1'
#435
0'
#440
1"
b0 S
1'
#445
0'
#450
b1111 U
b11000 V
0"
b0 S
1'
#455
0'
#460
1"
b0 S
1'
#465
0'
#470
b10000 U
b10111 V
0"
b0 S
1'
#475
0'
#480
1"
b0 S
1'
#485
0'
#490
b10001 U
b10110 V
0"
b0 S
1'
#495
0'
#500
1"
b0 S
1'
#505
0'
#510
b10010 U
b10101 V
0"
b0 S
1'
#515
0'
#520
1"
b0 S
1'
#525
0'
#530
b10011 U
b10100 V
0"
b0 S
1'
#535
0'
#540
1"
b0 S
1'
#545
0'
#550
b10100 U
b10011 V
0"
b0 S
1'
#555
0'
#560
1"
b0 S
1'
#565
0'
#570
b10101 U
b10010 V
0"
b0 S
1'
#575
0'
#580
1"
b0 S
1'
#585
0'
#590
b10110 U
b10001 V
0"
b0 S
1'
#595
0'
#600
1"
b0 S
1'
#605
0'
#610
b10111 U
b10000 V
0"
b0 S
1'
#615
0'
#620
1"
b0 S
1'
#625
0'
#630
b11000 U
b1111 V
0"
b0 S
1'
#635
0'
#640
1"
b0 S
1'
#645
0'
#650
b11001 U
b1110 V
0"
b0 S
1'
#655
0'
#660
1"
b0 S
1'
#665
0'
#670
b11010 U
b1101 V
0"
b0 S
1'
#675
0'
#680
1"
b0 S
1'
#685
0'
#690
b11011 U
b1100 V
0"
b0 S
1'
#695
0'
#700
1"
b0 S
1'
#705
0'
#710
b11100 U
b1011 V
0"
b0 S
1'
#715
0'
#720
1"
b0 S
1'
#725
0'
#730
b11101 U
b1010 V
0"
b0 S
1'
#735
0'
#740
1"
b0 S
1'
#745
0'
#750
b11110 U
b1001 V
0"
b0 S
1'
#755
0'
#760
1"
b0 S
1'
#765
0'
#770
b11111 U
b1000 V
0"
b0 S
1'
#775
0'
#780
1"
b0 S
1'
#785
0'
#790
b100000 U
b111 V
0"
b0 S
1'
#795
0'
#800
1"
b0 S
1'
#805
0'
#810
b100001 U
b110 V
0"
b0 S
1'
#815
0'
#820
1"
b0 S
1'
#825
0'
#830
b100010 U
b101 V
0"
b0 S
1'
#835
0'
#840
1"
b0 S
1'
#845
0'
#850
b100011 U
b100 V
0"
b0 S
1'
#855
0'
#860
1"
b0 S
1'
#865
0'
#870
b100100 U
b11 V
0"
b0 S
1'
#875
0'
#880
1"
b0 S
1'
#885
0'
#890
b100101 U
b10 V
0"
b0 S
1'
#895
0'
#900
1"
b0 S
1'
#905
0'
#910
b100110 U
b1 V
0"
b0 S
1'
#915
0'
#920
1"
b0 S
1'
#925
0'
#930
b100111 U
b0 V
0"
b0 S
1'
#935
0'
#940
1"
b0 S
1'
#945
0'
#950
b101000 U
b11111 V
0"
b0 S
1'
#955
0'
#960
1"
b0 S
1'
#965
0'
#970
b101001 U
b11110 V
0"
b0 S
1'
#975
0'
#980
1"
b0 S
1'
#985
0'
#990
b101010 U
b11101 V
0"
b0 S
1'
#995
0'
#1000
1"
b0 S
1'
#1005
0'
#1010
b101011 U
b11100 V
0"
b0 S
1'
#1015
0'
#1020
1"
b0 S
1'
#1025
0'
#1030
b101100 U
b11011 V
0"
b0 S
1'
#1035
0'
#1040
1"
b0 S
1'
#1045
0'
#1050
b101101 U
b11010 V
0"
b0 S
1'
#1055
0'
#1060
1"
b0 S
1'
#1065
0'
#1070
b101110 U
b11001 V
0"
b0 S
1'
#1075
0'
#1080
1"
b0 S
1'
#1085
0'
#1090
b101111 U
b11000 V
0"
b0 S
1'
#1095
0'
#1100
1"
b0 S
1'
#1105
0'
#1110
b110000 U
b10111 V
0"
b0 S
1'
#1115
0'
#1120
1"
b0 S
1'
#1125
0'
#1130
b110001 U
b10110 V
0"
b0 S
1'
#1135
0'
#1140
1"
b0 S
1'
#1145
0'
#1150
b110010 U
b10101 V
0"
b0 S
1'
#1155
0'
#1160
1"
b0 S
1'
#1165
0'
#1170
b110011 U
b10100 V
0"
b0 S
1'
#1175
0'
#1180
1"
b0 S
1'
#1185
0'
#1190
b110100 U
b10011 V
0"
b0 S
1'
#1195
0'
#1200
1"
b0 S
1'
#1205
0'
#1210
b110101 U
b10010 V
0"
b0 S
1'
#1215
0'
#1220
1"
b0 S
1'
#1225
0'
#1230
b110110 U
b10001 V
0"
b0 S
1'
#1235
0'
#1240
1"
b0 S
1'
#1245
0'
#1250
b110111 U
b10000 V
0"
b0 S
1'
#1255
0'
#1260
1"
b0 S
1'
#1265
0'
#1270
b111000 U
b1111 V
0"
b0 S
1'
#1275
0'
#1280
1"
b0 S
1'
#1285
0'
#1290
b111001 U
b1110 V
0"
b0 S
1'
#1295
0'
#1300
1"
b0 S
1'
#1305
0'
#1310
b111010 U
b1101 V
0"
b0 S
1'
#1315
0'
#1320
1"
b0 S
1'
#1325
0'
#1330
b111011 U
b1100 V
0"
b0 S
1'
#1335
0'
#1340
1"
b0 S
1'
#1345
0'
#1350
b111100 U
b1011 V
0"
b0 S
1'
#1355
0'
#1360
1"
b0 S
1'
#1365
0'
#1370
b111101 U
b1010 V
0"
b0 S
1'
#1375
0'
#1380
1"
b0 S
1'
#1385
0'
#1390
b111110 U
b1001 V
0"
b0 S
1'
#1395
0'
#1400
1"
b0 S
1'
#1405
0'
#1410
b111111 U
b1000 V
0"
b0 S
1'
#1415
0'
#1420
1"
b0 S
1'
#1425
0'
#1430
b1000000 U
b111 V
0"
b0 S
1'
#1435
0'
#1440
1"
b0 S
1'
#1445
0'
#1450
b1000001 U
b110 V
0"
b0 S
1'
#1455
0'
#1460
1"
b0 S
1'
#1465
0'
#1470
b1000010 U
b101 V
0"
b0 S
1'
#1475
0'
#1480
1"
b0 S
1'
#1485
0'
#1490
b1000011 U
b100 V
0"
b0 S
1'
#1495
0'
#1500
1"
b0 S
1'
#1505
0'
#1510
b1000100 U
b11 V
0"
b0 S
1'
#1515
0'
#1520
1"
b0 S
1'
#1525
0'
#1530
b1000101 U
b10 V
0"
b0 S
1'
#1535
0'
#1540
1"
b0 S
1'
#1545
0'
#1550
b1000110 U
b1 V
0"
b0 S
1'
#1555
0'
#1560
1"
b0 S
1'
#1565
0'
#1570
b1000111 U
b0 V
0"
b0 S
1'
#1575
0'
#1580
1"
b0 S
1'
#1585
0'
#1590
b1001000 U
b11111 V
0"
b0 S
1'
#1595
0'
#1600
1"
b0 S
1'
#1605
0'
#1610
b1001001 U
b11110 V
0"
b0 S
1'
#1615
0'
#1620
1"
b0 S
1'
#1625
0'
#1630
b1001010 U
b11101 V
0"
b0 S
1'
#1635
0'
#1640
1"
b0 S
1'
#1645
0'
#1650
b1001011 U
b11100 V
0"
b0 S
1'
#1655
0'
#1660
1"
b0 S
1'
#1665
0'
#1670
b1001100 U
b11011 V
0"
b0 S
1'
#1675
0'
#1680
1"
b0 S
1'
#1685
0'
#1690
b1001101 U
b11010 V
0"
b0 S
1'
#1695
0'
#1700
1"
b0 S
1'
#1705
0'
#1710
b1001110 U
b11001 V
0"
b0 S
1'
#1715
0'
#1720
1"
b0 S
1'
#1725
0'
#1730
b1001111 U
b11000 V
0"
b0 S
1'
#1735
0'
#1740
1"
b0 S
1'
#1745
0'
#1750
b1010000 U
b10111 V
0"
b0 S
1'
#1755
0'
#1760
1"
b0 S
1'
#1765
0'
#1770
b1010001 U
b10110 V
0"
b0 S
1'
#1775
0'
#1780
1"
b0 S
1'
#1785
0'
#1790
b1010010 U
b10101 V
0"
b0 S
1'
#1795
0'
#1800
1"
b0 S
1'
#1805
0'
#1810
b1010011 U
b10100 V
0"
b0 S
1'
#1815
0'
#1820
1"
b0 S
1'
#1825
0'
#1830
b1010100 U
b10011 V
0"
b0 S
1'
#1835
0'
#1840
1"
b0 S
1'
#1845
0'
#1850
b1010101 U
b10010 V
0"
b0 S
1'
#1855
0'
#1860
1"
b0 S
1'
#1865
0'
#1870
b1010110 U
b10001 V
0"
b0 S
1'
#1875
0'
#1880
1"
b0 S
1'
#1885
0'
#1890
b1010111 U
b10000 V
0"
b0 S
1'
#1895
0'
#1900
1"
b0 S
1'
#1905
0'
#1910
b1011000 U
b1111 V
0"
b0 S
1'
#1915
0'
#1920
1"
b0 S
1'
#1925
0'
#1930
b1011001 U
b1110 V
0"
b0 S
1'
#1935
0'
#1940
1"
b0 S
1'
#1945
0'
#1950
b1011010 U
b1101 V
0"
b0 S
1'
#1955
0'
#1960
1"
b0 S
1'
#1965
0'
#1970
b1011011 U
b1100 V
0"
b0 S
1'
#1975
0'
#1980
1"
b0 S
1'
#1985
0'
#1990
b1011100 U
b1011 V
0"
b0 S
1'
#1995
0'
#2000
1"
b0 S
1'
#2005
0'
#2010
b1011101 U
b1010 V
0"
b0 S
1'
#2015
0'
#2020
1"
b0 S
1'
#2025
0'
#2030
b1011110 U
b1001 V
0"
b0 S
1'
#2035
0'
#2040
1"
b0 S
1'
#2045
0'
#2050
b1011111 U
b1000 V
0"
b0 S
1'
#2055
0'
#2060
1"
b0 S
1'
#2065
0'
#2070
b1100000 U
b111 V
0"
b0 S
1'
#2075
0'
#2080
1"
b0 S
1'
#2085
0'
#2090
b1100001 U
b110 V
0"
b0 S
1'
#2095
0'
#2100
1"
b0 S
1'
#2105
0'
#2110
b1100010 U
b101 V
0"
b0 S
1'
#2115
0'
#2120
1"
b0 S
1'
#2125
0'
#2130
b1100011 U
b100 V
0"
b0 S
1'
#2135
0'
#2140
1"
b0 S
1'
#2145
0'
#2150
b1100100 U
b11 V
0"
b0 S
1'
#2155
0'
#2160
1"
b0 S
1'
#2165
0'
#2170
b1100101 U
b10 V
0"
b0 S
1'
#2175
0'
#2180
1"
b0 S
1'
#2185
0'
#2190
b1100110 U
b1 V
0"
b0 S
1'
#2195
0'
#2200
1"
b0 S
1'
#2205
0'
#2210
b1100111 U
b0 V
0"
b0 S
1'
#2215
0'
#2220
1"
b0 S
1'
#2225
0'
#2230
b1101000 U
b11111 V
0"
b0 S
1'
#2235
0'
#2240
1"
b0 S
1'
#2245
0'
#2250
b1101001 U
b11110 V
0"
b0 S
1'
#2255
0'
#2260
1"
b0 S
1'
#2265
0'
#2270
b1101010 U
b11101 V
0"
b0 S
1'
#2275
0'
#2280
1"
b0 S
1'
#2285
0'
#2290
b1101011 U
b11100 V
0"
b0 S
1'
#2295
0'
#2300
1"
b0 S
1'
#2305
0'
#2310
b1101100 U
b11011 V
0"
b0 S
1'
#2315
0'
#2320
1"
b0 S
1'
#2325
0'
#2330
b1101101 U
b11010 V
0"
b0 S
1'
#2335
0'
#2340
1"
b0 S
1'
#2345
0'
#2350
b1101110 U
b11001 V
0"
b0 S
1'
#2355
0'
#2360
1"
b0 S
1'
#2365
0'
#2370
b1101111 U
b11000 V
0"
b0 S
1'
#2375
0'
#2380
1"
b0 S
1'
#2385
0'
#2390
b1110000 U
b10111 V
0"
b0 S
1'
#2395
0'
#2400
1"
b0 S
1'
#2405
0'
#2410
b1110001 U
b10110 V
0"
b0 S
1'
#2415
0'
#2420
1"
b0 S
1'
#2425
0'
#2430
b1110010 U
b10101 V
0"
b0 S
1'
#2435
0'
#2440
1"
b0 S
1'
#2445
0'
#2450
b1110011 U
b10100 V
0"
b0 S
1'
#2455
0'
#2460
1"
b0 S
1'
#2465
0'
#2470
b1110100 U
b10011 V
0"
b0 S
1'
#2475
0'
#2480
1"
b0 S
1'
#2485
0'
#2490
b1110101 U
b10010 V
0"
b0 S
1'
#2495
0'
#2500
1"
b0 S
1'
#2505
0'
#2510
b1110110 U
b10001 V
0"
b0 S
1'
#2515
0'
#2520
1"
b0 S
1'
#2525
0'
#2530
b1110111 U
b10000 V
0"
b0 S
1'
#2535
0'
#2540
1"
b0 S
1'
#2545
0'
#2550
b1111000 U
b1111 V
0"
b0 S
1'
#2555
0'
#2560
1"
b0 S
1'
#2565
0'
#2570
b1111001 U
b1110 V
0"
b0 S
1'
#2575
0'
#2580
1"
b0 S
1'
#2585
0'
#2590
b1111010 U
b1101 V
0"
b0 S
1'
#2595
0'
#2600
1"
b0 S
1'
#2605
0'
#2610
b1111011 U
b1100 V
0"
b0 S
1'
#2615
0'
#2620
1"
b0 S
1'
#2625
0'
#2630
b1111100 U
b1011 V
0"
b0 S
1'
#2635
0'
#2640
1"
b0 S
1'
#2645
0'
#2650
b1111101 U
b1010 V
0"
b0 S
1'
#2655
0'
#2660
1"
b0 S
1'
#2665
0'
#2670
b1111110 U
b1001 V
0"
b0 S
1'
#2675
0'
#2680
1"
b0 S
1'
#2685
0'
#2690
b1111111 U
b1000 V
0"
b0 S
1'
#2695
0'
#2700
1"
b0 S
1'
#2705
0'
#2710
b10000000 U
b111 V
0"
b0 S
1'
#2715
0'
#2720
1"
b0 S
1'
#2725
0'
#2730
b10000001 U
b110 V
0"
b0 S
1'
#2735
0'
#2740
1"
b0 S
1'
#2745
0'
#2750
b10000010 U
b101 V
0"
b0 S
1'
#2755
0'
#2760
1"
b0 S
1'
#2765
0'
#2770
b10000011 U
b100 V
0"
b0 S
1'
#2775
0'
#2780
1"
b0 S
1'
#2785
0'
#2790
b10000100 U
b11 V
0"
b0 S
1'
#2795
0'
#2800
1"
b0 S
1'
#2805
0'
#2810
b10000101 U
b10 V
0"
b0 S
1'
#2815
0'
#2820
1"
b0 S
1'
#2825
0'
#2830
b10000110 U
b1 V
0"
b0 S
1'
#2835
0'
#2840
1"
b0 S
1'
#2845
0'
#2850
b10000111 U
b0 V
0"
b0 S
1'
#2855
0'
#2860
1"
b0 S
1'
#2865
0'
#2870
b10001000 U
b11111 V
0"
b0 S
1'
#2875
0'
#2880
1"
b0 S
1'
#2885
0'
#2890
b10001001 U
b11110 V
0"
b0 S
1'
#2895
0'
#2900
1"
b0 S
1'
#2905
0'
#2910
b10001010 U
b11101 V
0"
b0 S
1'
#2915
0'
#2920
1"
b0 S
1'
#2925
0'
#2930
b10001011 U
b11100 V
0"
b0 S
1'
#2935
0'
#2940
1"
b0 S
1'
#2945
0'
#2950
b10001100 U
b11011 V
0"
b0 S
1'
#2955
0'
#2960
1"
b0 S
1'
#2965
0'
#2970
b10001101 U
b11010 V
0"
b0 S
1'
#2975
0'
#2980
1"
b0 S
1'
#2985
0'
#2990
b10001110 U
b11001 V
0"
b0 S
1'
#2995
0'
#3000
1"
b0 S
1'
#3005
0'
#3010
b10001111 U
b11000 V
0"
b0 S
1'
#3015
0'
#3020
1"
b0 S
1'
#3025
0'
#3030
b10010000 U
b10111 V
0"
b0 S
1'
#3035
0'
#3040
1"
b0 S
1'
#3045
0'
#3050
b10010001 U
b10110 V
0"
b0 S
1'
#3055
0'
#3060
1"
b0 S
1'
#3065
0'
#3070
b10010010 U
b10101 V
0"
b0 S
1'
#3075
0'
#3080
1"
b0 S
1'
#3085
0'
#3090
b10010011 U
b10100 V
0"
b0 S
1'
#3095
0'
#3100
1"
b0 S
1'
#3105
0'
#3110
b10010100 U
b10011 V
0"
b0 S
1'
#3115
0'
#3120
1"
b0 S
1'
#3125
0'
#3130
b10010101 U
b10010 V
0"
b0 S
1'
#3135
0'
#3140
1"
b0 S
1'
#3145
0'
#3150
b10010110 U
b10001 V
0"
b0 S
1'
#3155
0'
#3160
1"
b0 S
1'
#3165
0'
#3170
b10010111 U
b10000 V
0"
b0 S
1'
#3175
0'
#3180
1"
b0 S
1'
#3185
0'
#3190
b10011000 U
b1111 V
0"
b0 S
1'
#3195
0'
#3200
1"
b0 S
1'
#3205
0'
#3210
b10011001 U
b1110 V
0"
b0 S
1'
#3215
0'
#3220
1"
b0 S
1'
#3225
0'
#3230
b10011010 U
b1101 V
0"
b0 S
1'
#3235
0'
#3240
1"
b0 S
1'
#3245
0'
#3250
b10011011 U
b1100 V
0"
b0 S
1'
#3255
0'
#3260
1"
b0 S
1'
#3265
0'
#3270
b10011100 U
b1011 V
0"
b0 S
1'
#3275
0'
#3280
1"
b0 S
1'
#3285
0'
#3290
b10011101 U
b1010 V
0"
b0 S
1'
#3295
0'
#3300
1"
b0 S
1'
#3305
0'
#3310
b10011110 U
b1001 V
0"
b0 S
1'
#3315
0'
#3320
1"
b0 S
1'
#3325
0'
#3330
b10011111 U
b1000 V
0"
b0 S
1'
#3335
0'
#3340
1"
b0 S
1'
#3345
0'
#3350
b10100000 U
b111 V
0"
b0 S
1'
#3355
0'
#3360
1"
b0 S
1'
#3365
0'
#3370
b10100001 U
b110 V
0"
b0 S
1'
#3375
0'
#3380
1"
b0 S
1'
#3385
0'
#3390
b10100010 U
b101 V
0"
b0 S
1'
#3395
0'
#3400
1"
b0 S
1'
#3405
0'
#3410
b10100011 U
b100 V
0"
b0 S
1'
#3415
0'
#3420
1"
b0 S
1'
#3425
0'
#3430
b10100100 U
b11 V
0"
b0 S
1'
#3435
0'
#3440
1"
b0 S
1'
#3445
0'
#3450
b10100101 U
b10 V
0"
b0 S
1'
#3455
0'
#3460
1"
b0 S
1'
#3465
0'
#3470
b10100110 U
b1 V
0"
b0 S
1'
#3475
0'
#3480
1"
b0 S
1'
#3485
0'
#3490
b10100111 U
b0 V
0"
b0 S
1'
#3495
0'
#3500
1"
b0 S
1'
#3505
0'
#3510
b10101000 U
b11111 V
0"
b0 S
1'
#3515
0'
#3520
1"
b0 S
1'
#3525
0'
#3530
b10101001 U
b11110 V
0"
b0 S
1'
#3535
0'
#3540
1"
b0 S
1'
#3545
0'
#3550
b10101010 U
b11101 V
0"
b0 S
1'
#3555
0'
#3560
1"
b0 S
1'
#3565
0'
#3570
b10101011 U
b11100 V
0"
b0 S
1'
#3575
0'
#3580
1"
b0 S
1'
#3585
0'
#3590
b10101100 U
b11011 V
0"
b0 S
1'
#3595
0'
#3600
1"
b0 S
1'
#3605
0'
#3610
b10101101 U
b11010 V
0"
b0 S
1'
#3615
0'
#3620
1"
b0 S
1'
#3625
0'
#3630
b10101110 U
b11001 V
0"
b0 S
1'
#3635
0'
#3640
1"
b0 S
1'
#3645
0'
#3650
b10101111 U
b11000 V
0"
b0 S
1'
#3655
0'
#3660
1"
b0 S
1'
#3665
0'
#3670
b10110000 U
b10111 V
0"
b0 S
1'
#3675
0'
#3680
1"
b0 S
1'
#3685
0'
#3690
b10110001 U
b10110 V
0"
b0 S
1'
#3695
0'
#3700
1"
b0 S
1'
#3705
0'
#3710
b10110010 U
b10101 V
0"
b0 S
1'
#3715
0'
#3720
1"
b0 S
1'
#3725
0'
#3730
b10110011 U
b10100 V
0"
b0 S
1'
#3735
0'
#3740
1"
b0 S
1'
#3745
0'
#3750
b10110100 U
b10011 V
0"
b0 S
1'
#3755
0'
#3760
1"
b0 S
1'
#3765
0'
#3770
b10110101 U
b10010 V
0"
b0 S
1'
#3775
0'
#3780
1"
b0 S
1'
#3785
0'
#3790
b10110110 U
b10001 V
0"
b0 S
1'
#3795
0'
#3800
1"
b0 S
1'
#3805
0'
#3810
b10110111 U
b10000 V
0"
b0 S
1'
#3815
0'
#3820
1"
b0 S
1'
#3825
0'
#3830
b10111000 U
b1111 V
0"
b0 S
1'
#3835
0'
#3840
1"
b0 S
1'
#3845
0'
#3850
b10111001 U
b1110 V
0"
b0 S
1'
#3855
0'
#3860
1"
b0 S
1'
#3865
0'
#3870
b10111010 U
b1101 V
0"
b0 S
1'
#3875
0'
#3880
1"
b0 S
1'
#3885
0'
#3890
b10111011 U
b1100 V
0"
b0 S
1'
#3895
0'
#3900
1"
b0 S
1'
#3905
0'
#3910
b10111100 U
b1011 V
0"
b0 S
1'
#3915
0'
#3920
1"
b0 S
1'
#3925
0'
#3930
b10111101 U
b1010 V
0"
b0 S
1'
#3935
0'
#3940
1"
b0 S
1'
#3945
0'
#3950
b10111110 U
b1001 V
0"
b0 S
1'
#3955
0'
#3960
1"
b0 S
1'
#3965
0'
#3970
b10111111 U
b1000 V
0"
b0 S
1'
#3975
0'
#3980
1"
b0 S
1'
#3985
0'
#3990
b11000000 U
b111 V
0"
b0 S
1'
#3995
0'
#4000
1"
b0 S
1'
#4005
0'
#4010
b11000001 U
b110 V
0"
b0 S
1'
#4015
0'
#4020
1"
b0 S
1'
#4025
0'
#4030
b11000010 U
b101 V
0"
b0 S
1'
#4035
0'
#4040
1"
b0 S
1'
#4045
0'
#4050
b11000011 U
b100 V
0"
b0 S
1'
#4055
0'
#4060
1"
b0 S
1'
#4065
0'
#4070
b11000100 U
b11 V
0"
b0 S
1'
#4075
0'
#4080
1"
b0 S
1'
#4085
0'
#4090
b11000101 U
b10 V
0"
b0 S
1'
#4095
0'
#4100
1"
b0 S
1'
#4105
0'
#4110
b11000110 U
b1 V
0"
b0 S
1'
#4115
0'
#4120
1"
b0 S
1'
#4125
0'
#4130
b11000111 U
b0 V
0"
b0 S
1'
#4135
0'
#4140
1"
b0 S
1'
#4145
0'
#4150
b11001000 U
b11111 V
0"
b0 S
1'
#4155
0'
#4160
1"
b0 S
1'
#4165
0'
#4170
b11001001 U
b11110 V
0"
b0 S
1'
#4175
0'
#4180
1"
b0 S
1'
#4185
0'
#4190
b11001010 U
b11101 V
0"
b0 S
1'
#4195
0'
#4200
1"
b0 S
1'
#4205
0'
#4210
b11001011 U
b11100 V
0"
b0 S
1'
#4215
0'
#4220
1"
b0 S
1'
#4225
0'
#4230
b11001100 U
b11011 V
0"
b0 S
1'
#4235
0'
#4240
1"
b0 S
1'
#4245
0'
#4250
b11001101 U
b11010 V
0"
b0 S
1'
#4255
0'
#4260
1"
b0 S
1'
#4265
0'
#4270
b11001110 U
b11001 V
0"
b0 S
1'
#4275
0'
#4280
1"
b0 S
1'
#4285
0'
#4290
b11001111 U
b11000 V
0"
b0 S
1'
#4295
0'
#4300
1"
b0 S
1'
#4305
0'
#4310
b11010000 U
b10111 V
0"
b0 S
1'
#4315
0'
#4320
1"
b0 S
1'
#4325
0'
#4330
b11010001 U
b10110 V
0"
b0 S
1'
#4335
0'
#4340
1"
b0 S
1'
#4345
0'
#4350
b11010010 U
b10101 V
0"
b0 S
1'
#4355
0'
#4360
1"
b0 S
1'
#4365
0'
#4370
b11010011 U
b10100 V
0"
b0 S
1'
#4375
0'
#4380
1"
b0 S
1'
#4385
0'
#4390
b11010100 U
b10011 V
0"
b0 S
1'
#4395
0'
#4400
1"
b0 S
1'
#4405
0'
#4410
b11010101 U
b10010 V
0"
b0 S
1'
#4415
0'
#4420
1"
b0 S
1'
#4425
0'
#4430
b11010110 U
b10001 V
0"
b0 S
1'
#4435
0'
#4440
1"
b0 S
1'
#4445
0'
#4450
b11010111 U
b10000 V
0"
b0 S
1'
#4455
0'
#4460
1"
b0 S
1'
#4465
0'
#4470
b11011000 U
b1111 V
0"
b0 S
1'
#4475
0'
#4480
1"
b0 S
1'
#4485
0'
#4490
b11011001 U
b1110 V
0"
b0 S
1'
#4495
0'
#4500
1"
b0 S
1'
#4505
0'
#4510
b11011010 U
b1101 V
0"
b0 S
1'
#4515
0'
#4520
1"
b0 S
1'
#4525
0'
#4530
b11011011 U
b1100 V
0"
b0 S
1'
#4535
0'
#4540
1"
b0 S
1'
#4545
0'
#4550
b11011100 U
b1011 V
0"
b0 S
1'
#4555
0'
#4560
1"
b0 S
1'
#4565
0'
#4570
b11011101 U
b1010 V
0"
b0 S
1'
#4575
0'
